%YAML 1.1
%TAG !u! tag:unity3d.com,2011:
--- !u!78 &1
TagManager:
  serializedVersion: 2
  tags:
  - Camel
  - peanut
  - butter
  - Moon
  - Tutorial
  - Sphere
  - Star
  - Cauldron
  - Doormat
  - Frostkey
  - FrostDoor
  - Fire
  - Sun
  - SavePoint
  - RustyDoor
  - Princess
  - StatsActivation
  layers:
  - Default
  - TransparentFX
  - Ignore Raycast
  - 
  - Water
  - UI
  - 
  - 
  - PostProcessing
  - 
  - 
  - 
  - 
  - 
  - 
  - 
  - 
  - 
  - 
  - 
  - 
  - 
  - 
  - 
  - 
  - 
  - 
  - 
  - 
  - 
  - 
  - 
  m_SortingLayers:
  - name: Default
    uniqueID: 0
    locked: 0
  - name: UI
    uniqueID: 2029103873
    locked: 0
